module gitlab.com/julienlevasseur/cloud_profile_manager

go 1.12

require (
	github.com/aws/aws-sdk-go v1.20.15
	github.com/google/pprof v0.0.0-20190515194954-54271f7e092f // indirect
	github.com/ianlancetaylor/demangle v0.0.0-20181102032728-5e5cf60278f6 // indirect
	github.com/mitchellh/go-homedir v1.1.0
	github.com/onsi/ginkgo v1.8.0
	github.com/onsi/gomega v1.5.0
	github.com/spf13/cobra v0.0.5
	github.com/spf13/viper v1.4.0
	golang.org/x/arch v0.0.0-20190312162104-788fe5ffcd8c // indirect
	gopkg.in/yaml.v2 v2.2.2
)
